{
    "%vlocity_namespace%__ApprovedBy__c": "",
    "%vlocity_namespace%__ApprovedOn__c": "",
    "%vlocity_namespace%__AttributeDefaultValues__c": "",
    "%vlocity_namespace%__AttributeMetadata__c": "",
    "%vlocity_namespace%__AttributeRules__c": "",
    "%vlocity_namespace%__CategoryData__c": [
        {
            "actions": {
            },
            "childCategories": [
            ],
            "displaySequence": -1,
            "fields": {
            },
            "messages": [
            ],
            "name": "Wireless Product Catalog",
            "nameResult": {
            },
            "uiStates": {
            }
        }
    ],
    "%vlocity_namespace%__ChangeDetectorImplementation__c": "",
    "%vlocity_namespace%__ClassId__c": "",
    "%vlocity_namespace%__DefaultImageId__c": "",
    "%vlocity_namespace%__EffectiveDate__c": "2020-10-22",
    "%vlocity_namespace%__EndDate__c": "",
    "%vlocity_namespace%__EndOfLifeDate__c": "",
    "%vlocity_namespace%__FulfilmentStartDate__c": "2020-10-22T09:24:04.000Z",
    "%vlocity_namespace%__GlobalGroupKey__c": "b73beed6-e10c-54ef-736b-cfcc492155cf",
    "%vlocity_namespace%__GlobalKey__c": "e049bdc9-0230-008a-cea2-e3d81b051f0e",
    "%vlocity_namespace%__HeaderData__c": "",
    "%vlocity_namespace%__HelpText__c": "",
    "%vlocity_namespace%__IsConfigurable__c": false,
    "%vlocity_namespace%__IsLocationDependent__c": false,
    "%vlocity_namespace%__IsNotAssetizable__c": false,
    "%vlocity_namespace%__IsOrderable__c": true,
    "%vlocity_namespace%__JeopardySafetyIntervalUnit__c": "Seconds",
    "%vlocity_namespace%__JeopardySafetyInterval__c": "",
    "%vlocity_namespace%__LifecycleStatus__c": "",
    "%vlocity_namespace%__Modification__c": "",
    "%vlocity_namespace%__ObjectTypeId__c": {
        "%vlocity_namespace%__GlobalKey__c": null,
        "VlocityDataPackType": "VlocityLookupMatchingKeyObject",
        "VlocityLookupRecordSourceKey": "%vlocity_namespace%__ObjectClass__c/Generated563533555",
        "VlocityRecordSObjectType": "%vlocity_namespace%__ObjectClass__c"
    },
    "%vlocity_namespace%__ParentClassId__c": "",
    "%vlocity_namespace%__PriceListEntry__c": "Premium-SIM-Offer_PriceListEntries.json",
    "%vlocity_namespace%__ProductChildItem__c": "Premium-SIM-Offer_ProductChildItems.json",
    "%vlocity_namespace%__ProductSpecId__c": "",
    "%vlocity_namespace%__ProductTemplateProductId__c": "",
    "%vlocity_namespace%__Scope__c": "Order Item",
    "%vlocity_namespace%__SellingEndDate__c": "",
    "%vlocity_namespace%__SellingStartDate__c": "2020-10-22T09:24:02.000Z",
    "%vlocity_namespace%__SpecificationSubType__c": "Bundle",
    "%vlocity_namespace%__SpecificationType__c": "Offer",
    "%vlocity_namespace%__StandardPremium__c": "",
    "%vlocity_namespace%__Status__c": "Active",
    "%vlocity_namespace%__SubType__c": "None",
    "%vlocity_namespace%__TimeToLive__c": "",
    "%vlocity_namespace%__TrackAsAgreement__c": false,
    "%vlocity_namespace%__Type__c": "None",
    "%vlocity_namespace%__VendorAccountId__c": "",
    "%vlocity_namespace%__VersionEndDateTime__c": "",
    "%vlocity_namespace%__VersionLabel__c": "",
    "%vlocity_namespace%__VersionStartDateTime__c": "",
    "CanUseQuantitySchedule": false,
    "CanUseRevenueSchedule": false,
    "Description": "Standard Offer which includes Basic Sim Only Offer with 5 GB Wireless data, 500 minutes Talk time & 500 Text SMS.",
    "DisplayUrl": "",
    "ExternalDataSourceId": "",
    "ExternalId": "",
    "Family": "Mobile",
    "IsActive": true,
    "IsArchived": false,
    "Name": "Premium SIM Offer",
    "NumberOfQuantityInstallments": "",
    "NumberOfRevenueInstallments": "",
    "PricebookEntry": "Premium-SIM-Offer_PricebookEntries.json",
    "ProductCode": "CRMA_OFFERING_PREMIUM_SIM_OFFER",
    "QuantityInstallmentPeriod": "",
    "QuantityScheduleType": "",
    "QuantityUnitOfMeasure": "",
    "RecordTypeId": "",
    "RevenueInstallmentPeriod": "",
    "RevenueScheduleType": "",
    "StandardPricebookEntry": [
        {
            "%vlocity_namespace%__FloorPrice__c": "",
            "%vlocity_namespace%__OverageCharge__c": "",
            "%vlocity_namespace%__OverageUOM__c": "",
            "%vlocity_namespace%__RecurringPrice__c": 0,
            "%vlocity_namespace%__RecurringUOM__c": "Monthly",
            "IsActive": true,
            "IsArchived": false,
            "Name": "Premium SIM Offer",
            "Pricebook2.Name": "Standard Price Book",
            "Pricebook2Id": {
                "Name": "Standard Price Book",
                "VlocityDataPackType": "VlocityLookupMatchingKeyObject",
                "VlocityLookupRecordSourceKey": "Pricebook2/Standard Price Book",
                "VlocityRecordSObjectType": "Pricebook2"
            },
            "Product2.%vlocity_namespace%__GlobalKey__c": "e049bdc9-0230-008a-cea2-e3d81b051f0e",
            "Product2Id": {
                "%vlocity_namespace%__GlobalKey__c": "e049bdc9-0230-008a-cea2-e3d81b051f0e",
                "VlocityDataPackType": "VlocityMatchingKeyObject",
                "VlocityMatchingRecordSourceKey": "Product2/e049bdc9-0230-008a-cea2-e3d81b051f0e",
                "VlocityRecordSObjectType": "Product2"
            },
            "ProductCode": "CRMA_OFFERING_PREMIUM_SIM_OFFER",
            "UnitPrice": 0,
            "UseStandardPrice": false,
            "VlocityDataPackType": "SObject",
            "VlocityRecordSObjectType": "PricebookEntry",
            "VlocityRecordSourceKey": "PricebookEntry/Pricebook2/Standard Price Book/Product2/e049bdc9-0230-008a-cea2-e3d81b051f0e"
        }
    ],
    "StockKeepingUnit": "",
    "VlocityDataPackType": "SObject",
    "VlocityRecordSObjectType": "Product2",
    "VlocityRecordSourceKey": "Product2/e049bdc9-0230-008a-cea2-e3d81b051f0e"
}