[
    "AttributeCategory/CRMA_ACAT_INTERNET_ATTRIBUTE",
    "ObjectClass/CRMA Internet Product Spec Type",
    "PriceList/CRMA_B2C_INR_PRICE_LIST",
    "PriceList/CRMA_B2C_USD_PRICE_LIST",
    "VlocityPicklist/5be1ed21-c457-7712-313b-39ee54df9620"
]