[
    "AttributeCategory/CRMA_ACAT_MOBILE_ATTRIBUTE",
    "ObjectClass/CRMA Wireless  Offer Spec Type",
    "PriceList/CRMA_B2C_USD_PRICE_LIST",
    "Product2/58d8a609-aecd-e82b-b791-1578029be42c",
    "Product2/6fa3bdfb-683f-7bae-793a-1b16a37902ac",
    "Product2/d03ee911-6b94-e502-ed27-7bb17b00b3df",
    "VlocityPicklist/97a46b2c-9c2d-1039-21be-0f6af7c70371"
]