[
    {
        "%vlocity_namespace%__ActionParameters__c": "{\"CRMA_ATT_VOICE\":{\"actionsList\":[{\"action\":\"ASSIGN\",\"value\":\"500 minutes\"}],\"index\":0}}",
        "%vlocity_namespace%__AddMode__c": "asSibling",
        "%vlocity_namespace%__AttributeModificationContext__c": "Bundle",
        "%vlocity_namespace%__Context__c": "Cart",
        "%vlocity_namespace%__DefaultQuantity__c": 1,
        "%vlocity_namespace%__Description__c": "",
        "%vlocity_namespace%__Family__c": "",
        "%vlocity_namespace%__GlobalKey__c": "2c32d33f-be97-84f5-96f7-99880b7d11ee",
        "%vlocity_namespace%__IsConditional__c": true,
        "%vlocity_namespace%__MaxQuantity__c": 1,
        "%vlocity_namespace%__MinQuantity__c": 1,
        "%vlocity_namespace%__ObjectTypeId__c": "",
        "%vlocity_namespace%__Product2Id__c": {
            "%vlocity_namespace%__GlobalKey__c": "bf133619-5b7f-cf8e-01e7-7a4fdbca8d4e",
            "VlocityDataPackType": "VlocityMatchingKeyObject",
            "VlocityMatchingRecordSourceKey": "Product2/bf133619-5b7f-cf8e-01e7-7a4fdbca8d4e",
            "VlocityRecordSObjectType": "Product2"
        },
        "%vlocity_namespace%__RelatedObjectTypeId__c": "",
        "%vlocity_namespace%__RelatedProductFilterId__c": "",
        "%vlocity_namespace%__RelatedProductId__c": {
            "%vlocity_namespace%__GlobalKey__c": "e54642ab-a191-1388-e54e-aebbdbe3ca71",
            "VlocityDataPackType": "VlocityLookupMatchingKeyObject",
            "VlocityLookupRecordSourceKey": "Product2/e54642ab-a191-1388-e54e-aebbdbe3ca71",
            "VlocityRecordSObjectType": "Product2"
        },
        "%vlocity_namespace%__RelationshipType__c": "Modify Attributes",
        "%vlocity_namespace%__ReverseMaxQuantity__c": "",
        "%vlocity_namespace%__ReverseMinQuantity__c": "",
        "CurrencyIsoCode": "INR",
        "Message__c": "",
        "Name": "CRMA  Premium SIM Offer  Modify Talk Time  Attribute (Voice) to 500 minutes",
        "VlocityDataPackType": "SObject",
        "VlocityRecordSObjectType": "%vlocity_namespace%__ProductRelationship__c",
        "VlocityRecordSourceKey": "%vlocity_namespace%__ProductRelationship__c/2c32d33f-be97-84f5-96f7-99880b7d11ee"
    },
    {
        "%vlocity_namespace%__ActionParameters__c": "{\"CRMA_ATT_SMS\":{\"actionsList\":[{\"action\":\"ASSIGN\",\"value\":\"500 texts\"}],\"index\":0}}",
        "%vlocity_namespace%__AddMode__c": "asSibling",
        "%vlocity_namespace%__AttributeModificationContext__c": "Bundle",
        "%vlocity_namespace%__Context__c": "Cart",
        "%vlocity_namespace%__DefaultQuantity__c": 1,
        "%vlocity_namespace%__Description__c": "",
        "%vlocity_namespace%__Family__c": "",
        "%vlocity_namespace%__GlobalKey__c": "97095a4c-afe0-21ee-18de-4b3714879df1",
        "%vlocity_namespace%__IsConditional__c": true,
        "%vlocity_namespace%__MaxQuantity__c": 1,
        "%vlocity_namespace%__MinQuantity__c": 1,
        "%vlocity_namespace%__ObjectTypeId__c": "",
        "%vlocity_namespace%__Product2Id__c": {
            "%vlocity_namespace%__GlobalKey__c": "bf133619-5b7f-cf8e-01e7-7a4fdbca8d4e",
            "VlocityDataPackType": "VlocityMatchingKeyObject",
            "VlocityMatchingRecordSourceKey": "Product2/bf133619-5b7f-cf8e-01e7-7a4fdbca8d4e",
            "VlocityRecordSObjectType": "Product2"
        },
        "%vlocity_namespace%__RelatedObjectTypeId__c": "",
        "%vlocity_namespace%__RelatedProductFilterId__c": "",
        "%vlocity_namespace%__RelatedProductId__c": {
            "%vlocity_namespace%__GlobalKey__c": "f190f8fc-b294-8432-2d35-7f4376ce33aa",
            "VlocityDataPackType": "VlocityLookupMatchingKeyObject",
            "VlocityLookupRecordSourceKey": "Product2/f190f8fc-b294-8432-2d35-7f4376ce33aa",
            "VlocityRecordSObjectType": "Product2"
        },
        "%vlocity_namespace%__RelationshipType__c": "Modify Attributes",
        "%vlocity_namespace%__ReverseMaxQuantity__c": "",
        "%vlocity_namespace%__ReverseMinQuantity__c": "",
        "CurrencyIsoCode": "INR",
        "Message__c": "",
        "Name": "CRMA Premium SIM Offer Modify Texts Attribute (SMS) to 500 texts",
        "VlocityDataPackType": "SObject",
        "VlocityRecordSObjectType": "%vlocity_namespace%__ProductRelationship__c",
        "VlocityRecordSourceKey": "%vlocity_namespace%__ProductRelationship__c/97095a4c-afe0-21ee-18de-4b3714879df1"
    },
    {
        "%vlocity_namespace%__ActionParameters__c": "{\"CRMA_ATT_MOBILE_DATA\":{\"actionsList\":[{\"action\":\"ASSIGN\",\"value\":\"5 GB\"}],\"index\":0}}",
        "%vlocity_namespace%__AddMode__c": "asSibling",
        "%vlocity_namespace%__AttributeModificationContext__c": "Bundle",
        "%vlocity_namespace%__Context__c": "Cart",
        "%vlocity_namespace%__DefaultQuantity__c": 1,
        "%vlocity_namespace%__Description__c": "",
        "%vlocity_namespace%__Family__c": "",
        "%vlocity_namespace%__GlobalKey__c": "e7d8d7fd-5adb-bbbe-6a41-fda8f6757338",
        "%vlocity_namespace%__IsConditional__c": true,
        "%vlocity_namespace%__MaxQuantity__c": 1,
        "%vlocity_namespace%__MinQuantity__c": 1,
        "%vlocity_namespace%__ObjectTypeId__c": "",
        "%vlocity_namespace%__Product2Id__c": {
            "%vlocity_namespace%__GlobalKey__c": "bf133619-5b7f-cf8e-01e7-7a4fdbca8d4e",
            "VlocityDataPackType": "VlocityMatchingKeyObject",
            "VlocityMatchingRecordSourceKey": "Product2/bf133619-5b7f-cf8e-01e7-7a4fdbca8d4e",
            "VlocityRecordSObjectType": "Product2"
        },
        "%vlocity_namespace%__RelatedObjectTypeId__c": "",
        "%vlocity_namespace%__RelatedProductFilterId__c": "",
        "%vlocity_namespace%__RelatedProductId__c": {
            "%vlocity_namespace%__GlobalKey__c": "0d28777c-0ed7-13bd-f22f-1c1c8d282df3",
            "VlocityDataPackType": "VlocityLookupMatchingKeyObject",
            "VlocityLookupRecordSourceKey": "Product2/0d28777c-0ed7-13bd-f22f-1c1c8d282df3",
            "VlocityRecordSObjectType": "Product2"
        },
        "%vlocity_namespace%__RelationshipType__c": "Modify Attributes",
        "%vlocity_namespace%__ReverseMaxQuantity__c": "",
        "%vlocity_namespace%__ReverseMinQuantity__c": "",
        "CurrencyIsoCode": "INR",
        "Message__c": "",
        "Name": "CRMA  Premium SIM Offer  Modify Wireless Data Attribute (Mobile Data) to 5 GB",
        "VlocityDataPackType": "SObject",
        "VlocityRecordSObjectType": "%vlocity_namespace%__ProductRelationship__c",
        "VlocityRecordSourceKey": "%vlocity_namespace%__ProductRelationship__c/e7d8d7fd-5adb-bbbe-6a41-fda8f6757338"
    }
]