[
    {
        "%vlocity_namespace%__AttributeCategoryId__c": {
            "%vlocity_namespace%__Code__c": "CRMA_ACAT_WIRELESS_ATTRIBUTE",
            "VlocityDataPackType": "VlocityLookupMatchingKeyObject",
            "VlocityLookupRecordSourceKey": "%vlocity_namespace%__AttributeCategory__c/CRMA_ACAT_WIRELESS_ATTRIBUTE",
            "VlocityRecordSObjectType": "%vlocity_namespace%__AttributeCategory__c"
        },
        "%vlocity_namespace%__AttributeId__c": {
            "%vlocity_namespace%__Code__c": "CRMA_ATT_SMS",
            "VlocityDataPackType": "VlocityLookupMatchingKeyObject",
            "VlocityLookupRecordSourceKey": "%vlocity_namespace%__Attribute__c/CRMA_ATT_SMS",
            "VlocityRecordSObjectType": "%vlocity_namespace%__Attribute__c"
        },
        "%vlocity_namespace%__GlobalKey__c": "89a32745-8ba2-6067-1dbf-57b41f80582e",
        "%vlocity_namespace%__IsActive__c": true,
        "%vlocity_namespace%__ObjectClassId__c": {
            "%vlocity_namespace%__GlobalKey__c": "63ba6ae5f8c257f7cdccc385d2a85dca",
            "VlocityDataPackType": "VlocityLookupMatchingKeyObject",
            "VlocityLookupRecordSourceKey": "%vlocity_namespace%__ObjectClass__c/63ba6ae5f8c257f7cdccc385d2a85dca",
            "VlocityRecordSObjectType": "%vlocity_namespace%__ObjectClass__c"
        },
        "%vlocity_namespace%__ObjectType__c": "Product2",
        "%vlocity_namespace%__SubClassId__c": {
            "%vlocity_namespace%__GlobalKey__c": "f190f8fc-b294-8432-2d35-7f4376ce33aa",
            "VlocityDataPackType": "VlocityMatchingKeyObject",
            "VlocityMatchingRecordSourceKey": "Product2/f190f8fc-b294-8432-2d35-7f4376ce33aa",
            "VlocityRecordSObjectType": "Product2"
        },
        "Name": "89a32745-8ba2-6067-1dbf-57b41f80582e",
        "VlocityDataPackType": "SObject",
        "VlocityRecordSObjectType": "%vlocity_namespace%__ObjectFieldAttribute__c"
    }
]