{
    "order": [
        {
            "AccountId": "0014P00002B8b32QAB",
            "Id": "8014P000002IW1xQAG",
            "accountName": "jul26",
            "id": "8014P000002IW1xQAG",
            "orderItems": {
                "describedBy": {
                    "CHECKBOX": "false",
                    "CURRENCY": "45.90",
                    "MobileColors": "mobile color",
                    "NUMBER": "333",
                    "TabletColors": "91"
                }
            }
        }
    ]
}