[
    {
        "%vlocity_namespace%__DomainObjectAPIName__c": "json",
        "%vlocity_namespace%__DomainObjectCreationOrder__c": 0,
        "%vlocity_namespace%__DomainObjectFieldAPIName__c": "order",
        "%vlocity_namespace%__FilterGroup__c": 0,
        "%vlocity_namespace%__FilterOperator__c": "=",
        "%vlocity_namespace%__FilterValue__c": "orderId",
        "%vlocity_namespace%__FormulaOrder__c": 0,
        "%vlocity_namespace%__GlobalKey__c": "e5abc357-f66a-8c2b-41c7-d3613396df16",
        "%vlocity_namespace%__InterfaceFieldAPIName__c": "Id",
        "%vlocity_namespace%__InterfaceObjectLookupOrder__c": 1,
        "%vlocity_namespace%__InterfaceObjectName__c": "%vlocity_namespace%__FulfilmentRequest__c",
        "%vlocity_namespace%__IsDisabled__c": false,
        "%vlocity_namespace%__IsRequiredForUpsert__c": false,
        "%vlocity_namespace%__LinkCreatedIndex__c": 0,
        "%vlocity_namespace%__MapId__c": "VCPS-AddMatrixxSubscriptionOfferRequestCustoma193j000006wmv2AAAItem0",
        "%vlocity_namespace%__UpsertKey__c": false,
        "Name": "VCPS-AddMatrixxSubscriptionOfferRequest",
        "VlocityDataPackType": "SObject",
        "VlocityRecordSObjectType": "%vlocity_namespace%__DRMapItem__c"
    },
    {
        "%vlocity_namespace%__DomainObjectAPIName__c": "json",
        "%vlocity_namespace%__DomainObjectCreationOrder__c": 0,
        "%vlocity_namespace%__DomainObjectFieldAPIName__c": "orderItems",
        "%vlocity_namespace%__FilterGroup__c": 0,
        "%vlocity_namespace%__FilterOperator__c": "=",
        "%vlocity_namespace%__FilterValue__c": "order:Id",
        "%vlocity_namespace%__GlobalKey__c": "29e5f5bf-f046-6cfc-b4b4-af593b6dd7a8",
        "%vlocity_namespace%__InterfaceFieldAPIName__c": "%vlocity_namespace%__FulfilmentRequestID__c",
        "%vlocity_namespace%__InterfaceObjectLookupOrder__c": 2,
        "%vlocity_namespace%__InterfaceObjectName__c": "%vlocity_namespace%__FulfilmentRequestLine__c",
        "%vlocity_namespace%__IsDisabled__c": false,
        "%vlocity_namespace%__IsRequiredForUpsert__c": false,
        "%vlocity_namespace%__MapId__c": "VCPS-AddMatrixxSubscriptionOfferRequestCustom4424",
        "%vlocity_namespace%__UpsertKey__c": false,
        "Name": "VCPS-AddMatrixxSubscriptionOfferRequest",
        "VlocityDataPackType": "SObject",
        "VlocityRecordSObjectType": "%vlocity_namespace%__DRMapItem__c"
    },
    {
        "%vlocity_namespace%__DefaultValue__c": "MtxRequestSubscriberPurchaseOffer",
        "%vlocity_namespace%__DomainObjectAPIName__c": "json",
        "%vlocity_namespace%__DomainObjectCreationOrder__c": 1,
        "%vlocity_namespace%__DomainObjectFieldAPIName__c": "$",
        "%vlocity_namespace%__FormulaOrder__c": 0,
        "%vlocity_namespace%__GlobalKey__c": "cbc1074e-0df2-d604-7924-92e09c9daa36",
        "%vlocity_namespace%__IsDisabled__c": false,
        "%vlocity_namespace%__IsRequiredForUpsert__c": false,
        "%vlocity_namespace%__LinkCreatedIndex__c": 0,
        "%vlocity_namespace%__MapId__c": "VCPS-AddMatrixxSubscriptionOfferRequestCustoma193j000006wmv2AAAItem3",
        "%vlocity_namespace%__UpsertKey__c": false,
        "Name": "VCPS-AddMatrixxSubscriptionOfferRequest",
        "VlocityDataPackType": "SObject",
        "VlocityRecordSObjectType": "%vlocity_namespace%__DRMapItem__c"
    },
    {
        "%vlocity_namespace%__DomainObjectAPIName__c": "json",
        "%vlocity_namespace%__DomainObjectCreationOrder__c": 1,
        "%vlocity_namespace%__DomainObjectFieldAPIName__c": "OfferRequestArray",
        "%vlocity_namespace%__DomainObjectFieldType__c": "List<Map>",
        "%vlocity_namespace%__GlobalKey__c": "9a69393e-e4e8-d1b7-0bd9-d692005e5a02",
        "%vlocity_namespace%__IsDisabled__c": false,
        "%vlocity_namespace%__IsRequiredForUpsert__c": false,
        "%vlocity_namespace%__MapId__c": "VCPS-AddMatrixxSubscriptionOfferRequestCustom6029",
        "%vlocity_namespace%__UpsertKey__c": false,
        "Name": "VCPS-AddMatrixxSubscriptionOfferRequest",
        "VlocityDataPackType": "SObject",
        "VlocityRecordSObjectType": "%vlocity_namespace%__DRMapItem__c"
    },
    {
        "%vlocity_namespace%__DefaultValue__c": "MtxPurchasedOfferData",
        "%vlocity_namespace%__DomainObjectAPIName__c": "json",
        "%vlocity_namespace%__DomainObjectCreationOrder__c": 1,
        "%vlocity_namespace%__DomainObjectFieldAPIName__c": "OfferRequestArray:$",
        "%vlocity_namespace%__GlobalKey__c": "2cecccf5-8d51-90fd-b0eb-88b6c747f8af",
        "%vlocity_namespace%__IsDisabled__c": false,
        "%vlocity_namespace%__IsRequiredForUpsert__c": false,
        "%vlocity_namespace%__MapId__c": "VCPS-AddMatrixxSubscriptionOfferRequestCustom8653",
        "%vlocity_namespace%__UpsertKey__c": false,
        "Name": "VCPS-AddMatrixxSubscriptionOfferRequest",
        "VlocityDataPackType": "SObject",
        "VlocityRecordSObjectType": "%vlocity_namespace%__DRMapItem__c"
    },
    {
        "%vlocity_namespace%__DomainObjectAPIName__c": "json",
        "%vlocity_namespace%__DomainObjectCreationOrder__c": 1,
        "%vlocity_namespace%__DomainObjectFieldAPIName__c": "OfferRequestArray:ExternalId",
        "%vlocity_namespace%__FormulaOrder__c": 0,
        "%vlocity_namespace%__GlobalKey__c": "621f359b-d8f1-7bee-7e2b-55a4db2099fc",
        "%vlocity_namespace%__InterfaceFieldAPIName__c": "orderItems:attrs:Product Code",
        "%vlocity_namespace%__IsDisabled__c": false,
        "%vlocity_namespace%__IsRequiredForUpsert__c": false,
        "%vlocity_namespace%__LinkCreatedIndex__c": 0,
        "%vlocity_namespace%__MapId__c": "VCPS-AddMatrixxSubscriptionOfferRequestCustoma193j000006wmv2AAAItem4",
        "%vlocity_namespace%__UpsertKey__c": false,
        "Name": "VCPS-AddMatrixxSubscriptionOfferRequest",
        "VlocityDataPackType": "SObject",
        "VlocityRecordSObjectType": "%vlocity_namespace%__DRMapItem__c"
    },
    {
        "%vlocity_namespace%__DomainObjectAPIName__c": "json",
        "%vlocity_namespace%__DomainObjectCreationOrder__c": 1,
        "%vlocity_namespace%__DomainObjectFieldAPIName__c": "SubscriberId",
        "%vlocity_namespace%__GlobalKey__c": "2d1ab3af-a93a-b92d-5251-f74ebb6a0b36",
        "%vlocity_namespace%__InterfaceFieldAPIName__c": "orderItems:attrs:SubscriberId",
        "%vlocity_namespace%__IsDisabled__c": false,
        "%vlocity_namespace%__IsRequiredForUpsert__c": false,
        "%vlocity_namespace%__MapId__c": "VCPS-AddMatrixxSubscriptionOfferRequestCustoma193j000006wmv2AAAItem2",
        "%vlocity_namespace%__UpsertKey__c": false,
        "Name": "VCPS-AddMatrixxSubscriptionOfferRequest",
        "VlocityDataPackType": "SObject",
        "VlocityRecordSObjectType": "%vlocity_namespace%__DRMapItem__c"
    }
]