{
    "%vlocity_namespace%__ApprovedBy__c": "",
    "%vlocity_namespace%__ApprovedOn__c": "",
    "%vlocity_namespace%__AttributeAssignment__c": "SIM-Only-Offer_AttributeAssignments.json",
    "%vlocity_namespace%__AttributeDefaultValues__c": {
        "ATT_DT_MPT": null,
        "ATT_ICCID_SIM_SERIAL": null,
        "ATT_IMSI": null,
        "ATT_RT_NL": null
    },
    "%vlocity_namespace%__AttributeMetadata__c": {
        "messages": [
        ],
        "records": [
            {
                "Code__c": "ATC_CHARACTERISTIC",
                "Name": "ATC_CHARACTERISTIC",
                "displaySequence": 103,
                "messages": [
                ],
                "productAttributes": {
                    "messages": [
                    ],
                    "records": [
                        {
                            "cloneable": true,
                            "code": "ATT_ICCID_SIM_SERIAL",
                            "dataType": "number",
                            "disabled": false,
                            "displaySequence": 997,
                            "filterable": true,
                            "hasRules": false,
                            "hidden": false,
                            "inputType": "number",
                            "isNotTranslatable": false,
                            "label": "ICCID",
                            "messages": [
                            ],
                            "multiselect": false,
                            "readonly": false,
                            "required": false,
                            "userValues": null,
                            "values": [
                                {
                                    "disabled": false,
                                    "readonly": false
                                }
                            ]
                        }
                    ],
                    "totalSize": 1
                }
            },
            {
                "Code__c": "ATC_IMSI",
                "Name": "ATC_IMSI",
                "displaySequence": 998,
                "messages": [
                ],
                "productAttributes": {
                    "messages": [
                    ],
                    "records": [
                        {
                            "cloneable": true,
                            "code": "ATT_IMSI",
                            "dataType": "number",
                            "disabled": false,
                            "displaySequence": 998,
                            "filterable": true,
                            "hasRules": false,
                            "hidden": false,
                            "inputType": "number",
                            "isNotTranslatable": false,
                            "label": "IMSI",
                            "messages": [
                            ],
                            "multiselect": false,
                            "readonly": false,
                            "required": false,
                            "userValues": null,
                            "values": [
                                {
                                    "disabled": false,
                                    "readonly": false
                                }
                            ]
                        }
                    ],
                    "totalSize": 1
                }
            },
            {
                "Code__c": "ACAT_Plans",
                "Name": "Mobile Plans",
                "displaySequence": 10,
                "messages": [
                ],
                "productAttributes": {
                    "messages": [
                    ],
                    "records": [
                        {
                            "cloneable": true,
                            "code": "ATT_DT_MPT",
                            "dataType": "text",
                            "disabled": true,
                            "displaySequence": 1,
                            "filterable": true,
                            "hasRules": false,
                            "hidden": false,
                            "inputType": "dropdown",
                            "isNotTranslatable": false,
                            "label": "Mobile Plan Type",
                            "messages": [
                            ],
                            "multiselect": false,
                            "readonly": true,
                            "required": false,
                            "userValues": null,
                            "values": [
                                {
                                    "disabled": false,
                                    "id": "10",
                                    "label": "Individual",
                                    "readonly": false,
                                    "value": "Individual"
                                },
                                {
                                    "disabled": false,
                                    "id": "20",
                                    "label": "Family",
                                    "readonly": false,
                                    "value": "Family"
                                }
                            ]
                        },
                        {
                            "cloneable": true,
                            "code": "ATT_RT_NL",
                            "dataType": "number",
                            "disabled": false,
                            "displaySequence": 30,
                            "filterable": false,
                            "hasRules": false,
                            "hidden": false,
                            "inputType": "number",
                            "isNotTranslatable": false,
                            "label": "Number of Lines",
                            "messages": [
                            ],
                            "multiselect": false,
                            "readonly": false,
                            "required": false,
                            "userValues": null,
                            "values": [
                                {
                                    "disabled": false,
                                    "readonly": false
                                }
                            ]
                        }
                    ],
                    "totalSize": 2
                }
            }
        ],
        "totalSize": 3
    },
    "%vlocity_namespace%__AttributeRules__c": "",
    "%vlocity_namespace%__CategoryData__c": [
        {
            "actions": {
            },
            "childCategories": [
            ],
            "displaySequence": -1,
            "fields": {
            },
            "messages": [
            ],
            "name": "Prepaid Plan",
            "nameResult": {
            },
            "uiStates": {
            }
        }
    ],
    "%vlocity_namespace%__ChangeDetectorImplementation__c": "",
    "%vlocity_namespace%__ClassId__c": "",
    "%vlocity_namespace%__DefaultImageId__c": "",
    "%vlocity_namespace%__EffectiveDate__c": "2020-09-02",
    "%vlocity_namespace%__EndDate__c": "",
    "%vlocity_namespace%__EndOfLifeDate__c": "",
    "%vlocity_namespace%__FulfilmentStartDate__c": "2020-09-02T18:30:00.000Z",
    "%vlocity_namespace%__GlobalKey__c": "7a7af443-9fbc-31e0-de1e-749249b9aa4a",
    "%vlocity_namespace%__HeaderData__c": "",
    "%vlocity_namespace%__HelpText__c": "",
    "%vlocity_namespace%__IsConfigurable__c": true,
    "%vlocity_namespace%__IsLocationDependent__c": false,
    "%vlocity_namespace%__IsNotAssetizable__c": false,
    "%vlocity_namespace%__IsOrderable__c": true,
    "%vlocity_namespace%__JeopardySafetyIntervalUnit__c": "Seconds",
    "%vlocity_namespace%__JeopardySafetyInterval__c": "",
    "%vlocity_namespace%__Modification__c": "",
    "%vlocity_namespace%__ObjectFieldAttribute__c": "SIM-Only-Offer_ObjectFieldAttributes.json",
    "%vlocity_namespace%__ObjectTypeId__c": {
        "%vlocity_namespace%__GlobalKey__c": null,
        "VlocityDataPackType": "VlocityLookupMatchingKeyObject",
        "VlocityLookupRecordSourceKey": "%vlocity_namespace%__ObjectClass__c/Generated-2076937878",
        "VlocityRecordSObjectType": "%vlocity_namespace%__ObjectClass__c"
    },
    "%vlocity_namespace%__ParentClassId__c": "",
    "%vlocity_namespace%__PriceListEntry__c": "SIM-Only-Offer_PriceListEntries.json",
    "%vlocity_namespace%__ProductChildItem__c": "SIM-Only-Offer_ProductChildItems.json",
    "%vlocity_namespace%__ProductSpecId__c": "",
    "%vlocity_namespace%__ProductTemplateProductId__c": "",
    "%vlocity_namespace%__Scope__c": "Order Item",
    "%vlocity_namespace%__SellingEndDate__c": "",
    "%vlocity_namespace%__SellingStartDate__c": "2020-09-02T18:30:00.000Z",
    "%vlocity_namespace%__SpecificationType__c": "Offer",
    "%vlocity_namespace%__StandardPremium__c": "",
    "%vlocity_namespace%__Status__c": "Active",
    "%vlocity_namespace%__SubType__c": "None",
    "%vlocity_namespace%__TimeToLive__c": "",
    "%vlocity_namespace%__TrackAsAgreement__c": false,
    "%vlocity_namespace%__Type__c": "None",
    "%vlocity_namespace%__VendorAccountId__c": "",
    "CanUseQuantitySchedule": false,
    "CanUseRevenueSchedule": false,
    "Description": "Starter Package",
    "DisplayUrl": "",
    "ExternalDataSourceId": "",
    "ExternalId": "",
    "Family": "",
    "IsActive": true,
    "IsArchived": false,
    "Name": "SIM Only Offer",
    "NumberOfQuantityInstallments": "",
    "NumberOfRevenueInstallments": "",
    "PricebookEntry": "SIM-Only-Offer_PricebookEntries.json",
    "ProductCode": "VPL_OFFERING_SIM_ONLY_OFFER",
    "QuantityInstallmentPeriod": "",
    "QuantityScheduleType": "",
    "QuantityUnitOfMeasure": "",
    "RecordTypeId": {
        "DeveloperName": "Product",
        "SobjectType": "Product2",
        "VlocityDataPackType": "VlocityLookupMatchingKeyObject",
        "VlocityLookupRecordSourceKey": "RecordType/Product2/Product",
        "VlocityRecordSObjectType": "RecordType"
    },
    "RevenueInstallmentPeriod": "",
    "RevenueScheduleType": "",
    "StandardPricebookEntry": [
        {
            "%vlocity_namespace%__FloorPrice__c": "",
            "%vlocity_namespace%__OverageCharge__c": "",
            "%vlocity_namespace%__OverageUOM__c": "",
            "%vlocity_namespace%__RecurringPrice__c": 0,
            "%vlocity_namespace%__RecurringUOM__c": "Monthly",
            "IsActive": true,
            "IsArchived": false,
            "Name": "SIM Only Offer",
            "Pricebook2.Name": "Standard Price Book",
            "Pricebook2Id": {
                "Name": "Standard Price Book",
                "VlocityDataPackType": "VlocityLookupMatchingKeyObject",
                "VlocityLookupRecordSourceKey": "Pricebook2/Standard Price Book",
                "VlocityRecordSObjectType": "Pricebook2"
            },
            "Product2.%vlocity_namespace%__GlobalKey__c": "7a7af443-9fbc-31e0-de1e-749249b9aa4a",
            "Product2Id": {
                "%vlocity_namespace%__GlobalKey__c": "7a7af443-9fbc-31e0-de1e-749249b9aa4a",
                "VlocityDataPackType": "VlocityMatchingKeyObject",
                "VlocityMatchingRecordSourceKey": "Product2/7a7af443-9fbc-31e0-de1e-749249b9aa4a",
                "VlocityRecordSObjectType": "Product2"
            },
            "ProductCode": "VPL_OFFERING_SIM_ONLY_OFFER",
            "UnitPrice": 0,
            "UseStandardPrice": false,
            "VlocityDataPackType": "SObject",
            "VlocityRecordSObjectType": "PricebookEntry",
            "VlocityRecordSourceKey": "PricebookEntry/Pricebook2/Standard Price Book/Product2/7a7af443-9fbc-31e0-de1e-749249b9aa4a"
        }
    ],
    "StockKeepingUnit": "",
    "VlocityDataPackType": "SObject",
    "VlocityRecordSObjectType": "Product2",
    "VlocityRecordSourceKey": "Product2/7a7af443-9fbc-31e0-de1e-749249b9aa4a"
}