{
    "%vlocity_namespace%__Active__c": true,
    "%vlocity_namespace%__OmniScriptId__c": {
        "Name": "CRMA-GetSimListFromInventory",
        "VlocityDataPackType": "VlocityMatchingKeyObject",
        "VlocityMatchingRecordSourceKey": "%vlocity_namespace%__OmniScript__c/crma/GetSimListFromInventory/Procedure",
        "VlocityRecordSObjectType": "%vlocity_namespace%__OmniScript__c"
    },
    "%vlocity_namespace%__PropertySet__c": {
        "actionMessage": "",
        "additionalInput": {
        },
        "additionalOutput": {
        },
        "chainOnStep": false,
        "disOnTplt": false,
        "executionConditionalFormula": "",
        "failOnStepError": true,
        "failureConditionalFormula": "",
        "failureResponse": {
        },
        "label": "HTTPAction1",
        "namedCredential": "",
        "postActionLogging": "",
        "preActionLogging": "%endpoint%",
        "responseJSONNode": "",
        "responseJSONPath": "",
        "restMethod": "GET",
        "restOptions": {
            "clientCertificateName": "",
            "headers": {
            },
            "isCompressed": false,
            "params": {
            },
            "sendBody": true,
            "timeout": 0,
            "xmlEscapeResponse": false
        },
        "restPath": "https://expresscrm-64ce2.firebaseio.com/SimInventory.json?print=prety&orderBy=\"Type\"&limitToFirst=%LimitCount%&equalTo=\"%Type%\"",
        "retryCount": 0,
        "returnOnlyAdditionalOutput": false,
        "returnOnlyFailureResponse": false,
        "sendJSONNode": "",
        "sendJSONPath": "",
        "sendOnlyAdditionalInput": false,
        "show": null,
        "type": "Integration",
        "useFormulas": true
    },
    "%vlocity_namespace%__ReusableOmniScript__c": false,
    "%vlocity_namespace%__Type__c": "Rest Action",
    "Name": "GetSimListFromInventory",
    "VlocityDataPackType": "SObject",
    "VlocityRecordSObjectType": "%vlocity_namespace%__Element__c",
    "VlocityRecordSourceKey": "%vlocity_namespace%__Element__c/%vlocity_namespace%__OmniScript__c/crma/GetSimListFromInventory/Procedure/GetSimListFromInventory"
}