[
    "AttributeCategory/CRMA_ACAT_MOBILE_ATTRIBUTE",
    "PriceList/CRMA_B2C_INR_PRICE_LIST",
    "PriceList/CRMA_B2C_USD_PRICE_LIST",
    "Product2/0d28777c-0ed7-13bd-f22f-1c1c8d282df3",
    "Product2/21eef6d6-ae27-31e0-4d58-70bb7e694ec7",
    "Product2/e54642ab-a191-1388-e54e-aebbdbe3ca71",
    "Product2/f190f8fc-b294-8432-2d35-7f4376ce33aa"
]