[
    "ObjectClass/CRMA Television  Offer Spec Type",
    "PriceList/CRMA_B2C_INR_PRICE_LIST",
    "PriceList/CRMA_B2C_USD_PRICE_LIST",
    "Product2/09fa2ec5-3854-e800-2e39-ac536bdbb213",
    "Product2/1687c06f-e63f-2ded-9c43-a5e45b62bae5",
    "Product2/4c52b334-0596-acd2-8952-27c70cee594e",
    "Product2/4f180392-938d-32a7-87c1-c712952034ec",
    "Product2/68fe7fb7-da59-0676-5c6e-f0b0deaa4396",
    "Product2/9e2bf4f3-a67e-3a16-b1be-1a97edac8fde",
    "Product2/f3b5f71e-dc2e-a1bb-75b3-8608a7a971bc",
    "Product2/f6a2ffcb-f067-15e5-3486-000516975b8a"
]