[
    {
        "%vlocity_namespace%__BasePriceListId__c": "",
        "%vlocity_namespace%__DisplayText__c": "$0 / month",
        "%vlocity_namespace%__EffectiveFromDate__c": "2020-10-22T12:49:46.000Z",
        "%vlocity_namespace%__EffectiveUntilDate__c": "",
        "%vlocity_namespace%__GlobalKey__c": "49bb4030-645d-295d-a87f-b3ec46239508",
        "%vlocity_namespace%__IsActive__c": true,
        "%vlocity_namespace%__IsBasePrice__c": true,
        "%vlocity_namespace%__IsOverride__c": true,
        "%vlocity_namespace%__IsVirtualPrice__c": false,
        "%vlocity_namespace%__OfferId__c": {
            "%vlocity_namespace%__GlobalKey__c": "e049bdc9-0230-008a-cea2-e3d81b051f0e",
            "VlocityDataPackType": "VlocityLookupMatchingKeyObject",
            "VlocityLookupRecordSourceKey": "Product2/e049bdc9-0230-008a-cea2-e3d81b051f0e",
            "VlocityRecordSObjectType": "Product2"
        },
        "%vlocity_namespace%__PriceListId__c": {
            "%vlocity_namespace%__Code__c": "CRMA_B2C_USD_PRICE_LIST",
            "VlocityDataPackType": "VlocityLookupMatchingKeyObject",
            "VlocityLookupRecordSourceKey": "%vlocity_namespace%__PriceList__c/CRMA_B2C_USD_PRICE_LIST",
            "VlocityRecordSObjectType": "%vlocity_namespace%__PriceList__c"
        },
        "%vlocity_namespace%__PricingElementGlobalKey__c": "0e93281f-97f3-039c-fc5c-087e0bdccfa7",
        "%vlocity_namespace%__PricingElementId__c": {
            "%vlocity_namespace%__GlobalKey__c": "c4d71ed1-fa25-9ef9-5558-95df243f3817",
            "VlocityDataPackType": "VlocityLookupMatchingKeyObject",
            "VlocityLookupRecordSourceKey": "%vlocity_namespace%__PricingElement__c/c4d71ed1-fa25-9ef9-5558-95df243f3817",
            "VlocityRecordSObjectType": "%vlocity_namespace%__PricingElement__c"
        },
        "%vlocity_namespace%__PricingMatrixBindingData__c": "",
        "%vlocity_namespace%__ProductId__c": {
            "%vlocity_namespace%__GlobalKey__c": "9a1d111f-8123-aa19-e1a8-a4761f8ce288",
            "VlocityDataPackType": "VlocityLookupMatchingKeyObject",
            "VlocityLookupRecordSourceKey": "Product2/9a1d111f-8123-aa19-e1a8-a4761f8ce288",
            "VlocityRecordSObjectType": "Product2"
        },
        "%vlocity_namespace%__PromotionId__c": {
            "%vlocity_namespace%__GlobalKey__c": "ac59d8bd-8347-b135-f78d-efc1029db678",
            "VlocityDataPackType": "VlocityMatchingKeyObject",
            "VlocityMatchingRecordSourceKey": "%vlocity_namespace%__Promotion__c/ac59d8bd-8347-b135-f78d-efc1029db678",
            "VlocityRecordSObjectType": "%vlocity_namespace%__Promotion__c"
        },
        "%vlocity_namespace%__PromotionItemId__c": {
            "%vlocity_namespace%__ProductId__r.%vlocity_namespace%__GlobalKey__c": "e049bdc9-0230-008a-cea2-e3d81b051f0e",
            "%vlocity_namespace%__PromotionId__r.%vlocity_namespace%__GlobalKey__c": "ac59d8bd-8347-b135-f78d-efc1029db678",
            "VlocityDataPackType": "VlocityMatchingKeyObject",
            "VlocityMatchingRecordSourceKey": "%vlocity_namespace%__PromotionItem__c/%vlocity_namespace%__Promotion__c/ac59d8bd-8347-b135-f78d-efc1029db678/Product2/e049bdc9-0230-008a-cea2-e3d81b051f0e",
            "VlocityRecordSObjectType": "%vlocity_namespace%__PromotionItem__c"
        },
        "%vlocity_namespace%__RulesDescription__c": "",
        "%vlocity_namespace%__TimePlanId__c": "",
        "%vlocity_namespace%__TimePolicyId__c": "",
        "Name": "49bb4030-645d-295d-a87f-b3ec46239508",
        "VlocityDataPackType": "SObject",
        "VlocityRecordSObjectType": "%vlocity_namespace%__PriceListEntry__c",
        "VlocityRecordSourceKey": "%vlocity_namespace%__PriceListEntry__c/49bb4030-645d-295d-a87f-b3ec46239508"
    },
    {
        "%vlocity_namespace%__BasePriceListId__c": "",
        "%vlocity_namespace%__DisplayText__c": "$2.00/ month",
        "%vlocity_namespace%__EffectiveFromDate__c": "2020-10-22T10:51:24.000Z",
        "%vlocity_namespace%__EffectiveUntilDate__c": "",
        "%vlocity_namespace%__GlobalKey__c": "4bc89a55-f9b1-de73-8213-f4dce0f5f2c4",
        "%vlocity_namespace%__IsActive__c": true,
        "%vlocity_namespace%__IsBasePrice__c": true,
        "%vlocity_namespace%__IsOverride__c": false,
        "%vlocity_namespace%__IsVirtualPrice__c": false,
        "%vlocity_namespace%__OfferId__c": {
            "%vlocity_namespace%__GlobalKey__c": "e049bdc9-0230-008a-cea2-e3d81b051f0e",
            "VlocityDataPackType": "VlocityLookupMatchingKeyObject",
            "VlocityLookupRecordSourceKey": "Product2/e049bdc9-0230-008a-cea2-e3d81b051f0e",
            "VlocityRecordSObjectType": "Product2"
        },
        "%vlocity_namespace%__PriceListId__c": {
            "%vlocity_namespace%__Code__c": "CRMA_B2C_USD_PRICE_LIST",
            "VlocityDataPackType": "VlocityLookupMatchingKeyObject",
            "VlocityLookupRecordSourceKey": "%vlocity_namespace%__PriceList__c/CRMA_B2C_USD_PRICE_LIST",
            "VlocityRecordSObjectType": "%vlocity_namespace%__PriceList__c"
        },
        "%vlocity_namespace%__PricingElementGlobalKey__c": "b92f83c9-7865-d87e-072a-ec225c6d3bb4",
        "%vlocity_namespace%__PricingElementId__c": {
            "%vlocity_namespace%__GlobalKey__c": "22cf913f-b209-9d83-ae35-12c9e0f87d1e",
            "VlocityDataPackType": "VlocityLookupMatchingKeyObject",
            "VlocityLookupRecordSourceKey": "%vlocity_namespace%__PricingElement__c/22cf913f-b209-9d83-ae35-12c9e0f87d1e",
            "VlocityRecordSObjectType": "%vlocity_namespace%__PricingElement__c"
        },
        "%vlocity_namespace%__PricingMatrixBindingData__c": "",
        "%vlocity_namespace%__ProductId__c": {
            "%vlocity_namespace%__GlobalKey__c": "9a1d111f-8123-aa19-e1a8-a4761f8ce288",
            "VlocityDataPackType": "VlocityLookupMatchingKeyObject",
            "VlocityLookupRecordSourceKey": "Product2/9a1d111f-8123-aa19-e1a8-a4761f8ce288",
            "VlocityRecordSObjectType": "Product2"
        },
        "%vlocity_namespace%__PromotionId__c": {
            "%vlocity_namespace%__GlobalKey__c": "ac59d8bd-8347-b135-f78d-efc1029db678",
            "VlocityDataPackType": "VlocityMatchingKeyObject",
            "VlocityMatchingRecordSourceKey": "%vlocity_namespace%__Promotion__c/ac59d8bd-8347-b135-f78d-efc1029db678",
            "VlocityRecordSObjectType": "%vlocity_namespace%__Promotion__c"
        },
        "%vlocity_namespace%__PromotionItemId__c": {
            "%vlocity_namespace%__ProductId__r.%vlocity_namespace%__GlobalKey__c": "e049bdc9-0230-008a-cea2-e3d81b051f0e",
            "%vlocity_namespace%__PromotionId__r.%vlocity_namespace%__GlobalKey__c": "ac59d8bd-8347-b135-f78d-efc1029db678",
            "VlocityDataPackType": "VlocityMatchingKeyObject",
            "VlocityMatchingRecordSourceKey": "%vlocity_namespace%__PromotionItem__c/%vlocity_namespace%__Promotion__c/ac59d8bd-8347-b135-f78d-efc1029db678/Product2/e049bdc9-0230-008a-cea2-e3d81b051f0e",
            "VlocityRecordSObjectType": "%vlocity_namespace%__PromotionItem__c"
        },
        "%vlocity_namespace%__RulesDescription__c": "",
        "%vlocity_namespace%__TimePlanId__c": "",
        "%vlocity_namespace%__TimePolicyId__c": "",
        "Name": "4bc89a55-f9b1-de73-8213-f4dce0f5f2c4",
        "VlocityDataPackType": "SObject",
        "VlocityRecordSObjectType": "%vlocity_namespace%__PriceListEntry__c",
        "VlocityRecordSourceKey": "%vlocity_namespace%__PriceListEntry__c/4bc89a55-f9b1-de73-8213-f4dce0f5f2c4"
    }
]