{
    "%vlocity_namespace%__AppliesToAllItems__c": false,
    "%vlocity_namespace%__BenefitTimePlanId__c": "",
    "%vlocity_namespace%__BenefitTimePolicyId__c": "",
    "%vlocity_namespace%__CannotBeCombined__c": false,
    "%vlocity_namespace%__Code__c": "CRMA_PROMOTION_PRM_SIM",
    "%vlocity_namespace%__Description__c": "Premium Promotion which includes Basic Sim Only Offer with 5 GB Wireless data, 500 minutes Talk time & 500 Text SMS.",
    "%vlocity_namespace%__DiscountType__c": "",
    "%vlocity_namespace%__DurationTimePlanId__c": "",
    "%vlocity_namespace%__DurationTimePolicyId__c": "",
    "%vlocity_namespace%__DurationUnitOfMeasure__c": "Month",
    "%vlocity_namespace%__Duration__c": "",
    "%vlocity_namespace%__EffectiveEndDate__c": "",
    "%vlocity_namespace%__EffectiveStartDate__c": "2020-10-22T10:29:02.000Z",
    "%vlocity_namespace%__EnableAutoAddProducts__c": false,
    "%vlocity_namespace%__EnableAutoApplyPromotion__c": true,
    "%vlocity_namespace%__FollowOnPromotionId__c": "",
    "%vlocity_namespace%__GlobalKey__c": "ac59d8bd-8347-b135-f78d-efc1029db678",
    "%vlocity_namespace%__IsActive__c": true,
    "%vlocity_namespace%__IsLimitedQuantity__c": true,
    "%vlocity_namespace%__IsOrderable__c": true,
    "%vlocity_namespace%__PriceListEntry__c": "Premium-SIM-Promo_PriceListEntries.json",
    "%vlocity_namespace%__PriceListId__c": {
        "%vlocity_namespace%__Code__c": "CRMA_B2C_USD_PRICE_LIST",
        "VlocityDataPackType": "VlocityLookupMatchingKeyObject",
        "VlocityLookupRecordSourceKey": "%vlocity_namespace%__PriceList__c/CRMA_B2C_USD_PRICE_LIST",
        "VlocityRecordSObjectType": "%vlocity_namespace%__PriceList__c"
    },
    "%vlocity_namespace%__PromotionItem__c": "Premium-SIM-Promo_PromotionItems.json",
    "%vlocity_namespace%__Quantity__c": "",
    "%vlocity_namespace%__RankOrder__c": "",
    "%vlocity_namespace%__RedeemableCode__c": "SIMPRMPROMO",
    "%vlocity_namespace%__ServiceContinuation__c": "Not Applicable",
    "Name": "Premium SIM Promo",
    "RecordTypeId": {
        "DeveloperName": "Promotion",
        "SobjectType": "%vlocity_namespace%__Promotion__c",
        "VlocityDataPackType": "VlocityLookupMatchingKeyObject",
        "VlocityLookupRecordSourceKey": "RecordType/%vlocity_namespace%__Promotion__c/Promotion",
        "VlocityRecordSObjectType": "RecordType"
    },
    "VlocityDataPackType": "SObject",
    "VlocityRecordSObjectType": "%vlocity_namespace%__Promotion__c",
    "VlocityRecordSourceKey": "%vlocity_namespace%__Promotion__c/ac59d8bd-8347-b135-f78d-efc1029db678"
}