{
    "%vlocity_namespace%__Code__c": "CRMA_B2C_USD_PRICE_LIST",
    "%vlocity_namespace%__CountOfActiveEntries__c": 26,
    "%vlocity_namespace%__CurrencyCode__c": "USD",
    "%vlocity_namespace%__Description__c": "Price List for CRMA Offers, Products & Promotion in USD Currency",
    "%vlocity_namespace%__EffectiveFromDate__c": "2020-09-30T18:30:00.000Z",
    "%vlocity_namespace%__EffectiveUntilDate__c": "",
    "%vlocity_namespace%__GlobalKey__c": "90915097-24d7-5745-c4fd-5666d3eff909",
    "%vlocity_namespace%__IsActive__c": true,
    "%vlocity_namespace%__LoyaltyCode__c": "PTS",
    "%vlocity_namespace%__ParentPriceListId__c": "",
    "%vlocity_namespace%__Pricebook2Id__c": {
        "Name": "Standard Price Book",
        "VlocityDataPackType": "VlocityLookupMatchingKeyObject",
        "VlocityLookupRecordSourceKey": "Pricebook2/Standard Price Book",
        "VlocityRecordSObjectType": "Pricebook2"
    },
    "%vlocity_namespace%__PricingElement__c": "CRMA-B2C-USD-Price-List_PricingElements.json",
    "%vlocity_namespace%__Sequence__c": 10,
    "Name": "CRMA B2C USD Price List",
    "VlocityDataPackType": "SObject",
    "VlocityRecordSObjectType": "%vlocity_namespace%__PriceList__c",
    "VlocityRecordSourceKey": "%vlocity_namespace%__PriceList__c/CRMA_B2C_USD_PRICE_LIST"
}