[
    "PriceList/CRMA_B2C_INR_PRICE_LIST",
    "PriceList/CRMA_B2C_USD_PRICE_LIST",
    "Product2/02b6656c-adec-aaef-2cee-427f51d60bcf",
    "Product2/5266a8ea-ecbb-3174-2991-5f0c15b45cf8",
    "Product2/5333150b-357e-6101-bfe5-c26a6d0c2787",
    "Product2/9a9f4ccf-8638-1d3c-118f-eed74a22df14",
    "VlocityPicklist/5be1ed21-c457-7712-313b-39ee54df9620",
    "VlocityPicklist/8c1ac16a-f0dd-f9bc-8ce1-ab7a023a9491"
]