{
    "ICCID": "12343234345656765656",
    "IMSI": "1234543434565656",
    "OrderId": "8014W000001pwWrQAI",
    "OrderItemId": "8024W000005YtQo",
    "PhoneNumber": "1234343456",
    "ServiceIdentifier": "1234343456"
}