[
    "AttributeCategory/CRMA_ACAT_INTERNET_ATTRIBUTE",
    "ObjectClass/CRMA  Internet Offer Spec Type",
    "Product2/02b6656c-adec-aaef-2cee-427f51d60bcf",
    "Product2/5333150b-357e-6101-bfe5-c26a6d0c2787",
    "Product2/84617075-c2c7-7242-3e51-66e0081988fa",
    "Product2/f4b4be46-b852-1069-4148-6b90463c0439",
    "VlocityPicklist/5be1ed21-c457-7712-313b-39ee54df9620",
    "VlocityPicklist/8c1ac16a-f0dd-f9bc-8ce1-ab7a023a9491"
]