{
    "%vlocity_namespace%__ApprovedBy__c": "",
    "%vlocity_namespace%__ApprovedOn__c": "",
    "%vlocity_namespace%__AttributeAssignment__c": "Internet-100-M_AttributeAssignments.json",
    "%vlocity_namespace%__AttributeDefaultValues__c": {
        "CRMA_ATT_BANDWITH": "100/20",
        "CRMA_ATT_DATA_ALLOWANCE": "500"
    },
    "%vlocity_namespace%__AttributeMetadata__c": {
        "messages": [
        ],
        "records": [
            {
                "Code__c": "CRMA_ACAT_INTERNET_ATTRIBUTE",
                "Name": "Internet Attribute",
                "displaySequence": 130,
                "messages": [
                ],
                "productAttributes": {
                    "messages": [
                    ],
                    "records": [
                        {
                            "cloneable": true,
                            "code": "CRMA_ATT_BANDWITH",
                            "dataType": "text",
                            "disabled": false,
                            "displaySequence": 10,
                            "filterable": true,
                            "hasRules": false,
                            "hidden": true,
                            "inputType": "dropdown",
                            "isNotTranslatable": false,
                            "label": "Bandwidth",
                            "messages": [
                            ],
                            "multiselect": false,
                            "readonly": false,
                            "required": false,
                            "userValues": null,
                            "values": [
                                {
                                    "disabled": false,
                                    "displaySequence": 10,
                                    "id": "62652a00-39d5-2bb5-d8bd-ad2ccdb8408c",
                                    "label": "50 Download/ 10 Upload Speed",
                                    "readonly": false,
                                    "value": "50/10"
                                },
                                {
                                    "disabled": false,
                                    "displaySequence": 20,
                                    "id": "4d4ed084-76ed-d720-dbb5-0deb4eb6b383",
                                    "label": "100 Download/ 20 Upload Speed",
                                    "readonly": false,
                                    "value": "100/20"
                                },
                                {
                                    "disabled": false,
                                    "displaySequence": 30,
                                    "id": "a8ff6963-b1d9-8cc0-9375-466ae3ffe07e",
                                    "label": "200 Download/ 30 Upload Speed",
                                    "readonly": false,
                                    "value": "200/30"
                                }
                            ]
                        },
                        {
                            "cloneable": true,
                            "code": "CRMA_ATT_DATA_ALLOWANCE",
                            "dataType": "text",
                            "disabled": false,
                            "displaySequence": 20,
                            "filterable": true,
                            "hasRules": false,
                            "hidden": true,
                            "inputType": "dropdown",
                            "isNotTranslatable": false,
                            "label": "Data allowance",
                            "messages": [
                            ],
                            "multiselect": false,
                            "readonly": false,
                            "required": false,
                            "userValues": null,
                            "values": [
                                {
                                    "disabled": false,
                                    "displaySequence": 10,
                                    "id": "ccd07c19-6a8a-d90e-6276-5f3c509dad2d",
                                    "label": "100 GB",
                                    "readonly": false,
                                    "value": "100"
                                },
                                {
                                    "disabled": false,
                                    "displaySequence": 20,
                                    "id": "64070ebc-542b-a5fb-9928-2749d2063504",
                                    "label": "500 GB",
                                    "readonly": false,
                                    "value": "500"
                                },
                                {
                                    "disabled": false,
                                    "displaySequence": 30,
                                    "id": "4da40470-10e9-4a77-c6e3-54096293ccbf",
                                    "label": "1000 GB",
                                    "readonly": false,
                                    "value": "1000"
                                }
                            ]
                        }
                    ],
                    "totalSize": 2
                }
            }
        ],
        "totalSize": 1
    },
    "%vlocity_namespace%__AttributeRules__c": "",
    "%vlocity_namespace%__CategoryData__c": [
        {
            "actions": {
            },
            "childCategories": [
            ],
            "displaySequence": -1,
            "fields": {
            },
            "messages": [
            ],
            "name": "Internet Product Catalog",
            "nameResult": {
            },
            "uiStates": {
            }
        }
    ],
    "%vlocity_namespace%__ChangeDetectorImplementation__c": "",
    "%vlocity_namespace%__ClassId__c": "",
    "%vlocity_namespace%__DefaultImageId__c": "",
    "%vlocity_namespace%__EffectiveDate__c": "2020-09-28",
    "%vlocity_namespace%__EndDate__c": "",
    "%vlocity_namespace%__EndOfLifeDate__c": "",
    "%vlocity_namespace%__FulfilmentStartDate__c": "2020-09-28T18:30:00.000Z",
    "%vlocity_namespace%__GlobalKey__c": "bab96efe-ff90-b539-47bf-3141df9d9290",
    "%vlocity_namespace%__HeaderData__c": "",
    "%vlocity_namespace%__HelpText__c": "",
    "%vlocity_namespace%__IsConfigurable__c": true,
    "%vlocity_namespace%__IsLocationDependent__c": false,
    "%vlocity_namespace%__IsNotAssetizable__c": false,
    "%vlocity_namespace%__IsOrderable__c": true,
    "%vlocity_namespace%__JeopardySafetyIntervalUnit__c": "Seconds",
    "%vlocity_namespace%__JeopardySafetyInterval__c": "",
    "%vlocity_namespace%__Modification__c": "",
    "%vlocity_namespace%__ObjectFieldAttribute__c": "Internet-100-M_ObjectFieldAttributes.json",
    "%vlocity_namespace%__ObjectTypeId__c": {
        "%vlocity_namespace%__GlobalKey__c": "7569b1a8d65a7cbcd454952e33b64de3",
        "VlocityDataPackType": "VlocityLookupMatchingKeyObject",
        "VlocityLookupRecordSourceKey": "%vlocity_namespace%__ObjectClass__c/7569b1a8d65a7cbcd454952e33b64de3",
        "VlocityRecordSObjectType": "%vlocity_namespace%__ObjectClass__c"
    },
    "%vlocity_namespace%__ParentClassId__c": "",
    "%vlocity_namespace%__PriceListEntry__c": "Internet-100-M_PriceListEntries.json",
    "%vlocity_namespace%__ProductChildItem__c": "Internet-100-M_ProductChildItems.json",
    "%vlocity_namespace%__ProductSpecId__c": "",
    "%vlocity_namespace%__ProductTemplateProductId__c": "",
    "%vlocity_namespace%__Scope__c": "Order Item",
    "%vlocity_namespace%__SellingEndDate__c": "",
    "%vlocity_namespace%__SellingStartDate__c": "2020-09-28T18:30:00.000Z",
    "%vlocity_namespace%__SpecificationType__c": "Offer",
    "%vlocity_namespace%__StandardPremium__c": "",
    "%vlocity_namespace%__Status__c": "Active",
    "%vlocity_namespace%__SubType__c": "None",
    "%vlocity_namespace%__TimeToLive__c": "",
    "%vlocity_namespace%__TrackAsAgreement__c": false,
    "%vlocity_namespace%__Type__c": "None",
    "%vlocity_namespace%__VendorAccountId__c": "",
    "CanUseQuantitySchedule": false,
    "CanUseRevenueSchedule": false,
    "CurrencyIsoCode": "USD",
    "Description": "",
    "DisplayUrl": "",
    "ExternalDataSourceId": "",
    "ExternalId": "",
    "Family": "Internet",
    "IsActive": true,
    "IsArchived": false,
    "Name": "Internet 100 M",
    "NumberOfQuantityInstallments": "",
    "NumberOfRevenueInstallments": "",
    "PricebookEntry": "Internet-100-M_PricebookEntries.json",
    "ProductCode": "CRMA_OFFERING_INTERNET_100M",
    "QuantityInstallmentPeriod": "",
    "QuantityScheduleType": "",
    "QuantityUnitOfMeasure": "",
    "RecordTypeId": {
        "DeveloperName": "Product",
        "SobjectType": "Product2",
        "VlocityDataPackType": "VlocityLookupMatchingKeyObject",
        "VlocityLookupRecordSourceKey": "RecordType/Product2/Product",
        "VlocityRecordSObjectType": "RecordType"
    },
    "RevenueInstallmentPeriod": "",
    "RevenueScheduleType": "",
    "StandardPricebookEntry": [
        {
            "%vlocity_namespace%__FloorPrice__c": "",
            "%vlocity_namespace%__OverageCharge__c": "",
            "%vlocity_namespace%__OverageUOM__c": "",
            "%vlocity_namespace%__RecurringPrice__c": 0,
            "%vlocity_namespace%__RecurringUOM__c": "Monthly",
            "CurrencyIsoCode": "INR",
            "IsActive": true,
            "IsArchived": false,
            "Name": "Internet 100 M",
            "Pricebook2.Name": "Standard Price Book",
            "Pricebook2Id": {
                "Name": "Standard Price Book",
                "VlocityDataPackType": "VlocityLookupMatchingKeyObject",
                "VlocityLookupRecordSourceKey": "Pricebook2/Standard Price Book",
                "VlocityRecordSObjectType": "Pricebook2"
            },
            "Product2.%vlocity_namespace%__GlobalKey__c": "bab96efe-ff90-b539-47bf-3141df9d9290",
            "Product2Id": {
                "%vlocity_namespace%__GlobalKey__c": "bab96efe-ff90-b539-47bf-3141df9d9290",
                "VlocityDataPackType": "VlocityMatchingKeyObject",
                "VlocityMatchingRecordSourceKey": "Product2/bab96efe-ff90-b539-47bf-3141df9d9290",
                "VlocityRecordSObjectType": "Product2"
            },
            "ProductCode": "CRMA_OFFERING_INTERNET_100M",
            "UnitPrice": 0,
            "UseStandardPrice": false,
            "VlocityDataPackType": "SObject",
            "VlocityRecordSObjectType": "PricebookEntry",
            "VlocityRecordSourceKey": "PricebookEntry/Pricebook2/Standard Price Book/Product2/bab96efe-ff90-b539-47bf-3141df9d9290"
        }
    ],
    "StockKeepingUnit": "",
    "VlocityDataPackType": "SObject",
    "VlocityRecordSObjectType": "Product2",
    "VlocityRecordSourceKey": "Product2/bab96efe-ff90-b539-47bf-3141df9d9290"
}