[
    {
        "%vlocity_namespace%__AttributeCategoryId__c": {
            "%vlocity_namespace%__Code__c": "CRMA_ACAT_INTERNET_ATTRIBUTE",
            "VlocityDataPackType": "VlocityLookupMatchingKeyObject",
            "VlocityLookupRecordSourceKey": "%vlocity_namespace%__AttributeCategory__c/CRMA_ACAT_INTERNET_ATTRIBUTE",
            "VlocityRecordSObjectType": "%vlocity_namespace%__AttributeCategory__c"
        },
        "%vlocity_namespace%__AttributeId__c": {
            "%vlocity_namespace%__Code__c": "CRMA_ATT_BANDWITH",
            "VlocityDataPackType": "VlocityLookupMatchingKeyObject",
            "VlocityLookupRecordSourceKey": "%vlocity_namespace%__Attribute__c/CRMA_ATT_BANDWITH",
            "VlocityRecordSObjectType": "%vlocity_namespace%__Attribute__c"
        },
        "%vlocity_namespace%__GlobalKey__c": "bb0b85f5-8dc5-7d9f-85c5-1b11f9f92a9f",
        "%vlocity_namespace%__IsActive__c": true,
        "%vlocity_namespace%__ObjectClassId__c": {
            "%vlocity_namespace%__GlobalKey__c": "63ba6ae5f8c257f7cdccc385d2a85dca",
            "VlocityDataPackType": "VlocityLookupMatchingKeyObject",
            "VlocityLookupRecordSourceKey": "%vlocity_namespace%__ObjectClass__c/63ba6ae5f8c257f7cdccc385d2a85dca",
            "VlocityRecordSObjectType": "%vlocity_namespace%__ObjectClass__c"
        },
        "%vlocity_namespace%__ObjectType__c": "Product2",
        "%vlocity_namespace%__SubClassId__c": {
            "%vlocity_namespace%__GlobalKey__c": "bab96efe-ff90-b539-47bf-3141df9d9290",
            "VlocityDataPackType": "VlocityMatchingKeyObject",
            "VlocityMatchingRecordSourceKey": "Product2/bab96efe-ff90-b539-47bf-3141df9d9290",
            "VlocityRecordSObjectType": "Product2"
        },
        "CurrencyIsoCode": "INR",
        "Name": "bb0b85f5-8dc5-7d9f-85c5-1b11f9f92a9f",
        "VlocityDataPackType": "SObject",
        "VlocityRecordSObjectType": "%vlocity_namespace%__ObjectFieldAttribute__c"
    },
    {
        "%vlocity_namespace%__AttributeCategoryId__c": {
            "%vlocity_namespace%__Code__c": "CRMA_ACAT_INTERNET_ATTRIBUTE",
            "VlocityDataPackType": "VlocityLookupMatchingKeyObject",
            "VlocityLookupRecordSourceKey": "%vlocity_namespace%__AttributeCategory__c/CRMA_ACAT_INTERNET_ATTRIBUTE",
            "VlocityRecordSObjectType": "%vlocity_namespace%__AttributeCategory__c"
        },
        "%vlocity_namespace%__AttributeId__c": {
            "%vlocity_namespace%__Code__c": "CRMA_ATT_DATA_ALLOWANCE",
            "VlocityDataPackType": "VlocityLookupMatchingKeyObject",
            "VlocityLookupRecordSourceKey": "%vlocity_namespace%__Attribute__c/CRMA_ATT_DATA_ALLOWANCE",
            "VlocityRecordSObjectType": "%vlocity_namespace%__Attribute__c"
        },
        "%vlocity_namespace%__GlobalKey__c": "bb509161-a984-af7e-3cef-a104a02c940c",
        "%vlocity_namespace%__IsActive__c": true,
        "%vlocity_namespace%__ObjectClassId__c": {
            "%vlocity_namespace%__GlobalKey__c": "63ba6ae5f8c257f7cdccc385d2a85dca",
            "VlocityDataPackType": "VlocityLookupMatchingKeyObject",
            "VlocityLookupRecordSourceKey": "%vlocity_namespace%__ObjectClass__c/63ba6ae5f8c257f7cdccc385d2a85dca",
            "VlocityRecordSObjectType": "%vlocity_namespace%__ObjectClass__c"
        },
        "%vlocity_namespace%__ObjectType__c": "Product2",
        "%vlocity_namespace%__SubClassId__c": {
            "%vlocity_namespace%__GlobalKey__c": "bab96efe-ff90-b539-47bf-3141df9d9290",
            "VlocityDataPackType": "VlocityMatchingKeyObject",
            "VlocityMatchingRecordSourceKey": "Product2/bab96efe-ff90-b539-47bf-3141df9d9290",
            "VlocityRecordSObjectType": "Product2"
        },
        "CurrencyIsoCode": "INR",
        "Name": "bb509161-a984-af7e-3cef-a104a02c940c",
        "VlocityDataPackType": "SObject",
        "VlocityRecordSObjectType": "%vlocity_namespace%__ObjectFieldAttribute__c"
    },
    {
        "%vlocity_namespace%__FieldApiName__c": "%vlocity_namespace%__EffectiveDate__c",
        "%vlocity_namespace%__GlobalKey__c": "990fdf1e-c49c-cd65-d735-3f8a6b207b0f",
        "%vlocity_namespace%__IsActive__c": true,
        "%vlocity_namespace%__ObjectClassId__c": {
            "%vlocity_namespace%__GlobalKey__c": "63ba6ae5f8c257f7cdccc385d2a85dca",
            "VlocityDataPackType": "VlocityLookupMatchingKeyObject",
            "VlocityLookupRecordSourceKey": "%vlocity_namespace%__ObjectClass__c/63ba6ae5f8c257f7cdccc385d2a85dca",
            "VlocityRecordSObjectType": "%vlocity_namespace%__ObjectClass__c"
        },
        "%vlocity_namespace%__ObjectType__c": "Product2",
        "%vlocity_namespace%__SubClassId__c": {
            "%vlocity_namespace%__GlobalKey__c": "bab96efe-ff90-b539-47bf-3141df9d9290",
            "VlocityDataPackType": "VlocityMatchingKeyObject",
            "VlocityMatchingRecordSourceKey": "Product2/bab96efe-ff90-b539-47bf-3141df9d9290",
            "VlocityRecordSObjectType": "Product2"
        },
        "CurrencyIsoCode": "INR",
        "Name": "990fdf1e-c49c-cd65-d735-3f8a6b207b0f",
        "VlocityDataPackType": "SObject",
        "VlocityRecordSObjectType": "%vlocity_namespace%__ObjectFieldAttribute__c"
    },
    {
        "%vlocity_namespace%__FieldApiName__c": "%vlocity_namespace%__EndDate__c",
        "%vlocity_namespace%__GlobalKey__c": "731b706c-3846-31ef-6a5c-cc2570ff52a2",
        "%vlocity_namespace%__IsActive__c": true,
        "%vlocity_namespace%__ObjectClassId__c": {
            "%vlocity_namespace%__GlobalKey__c": "63ba6ae5f8c257f7cdccc385d2a85dca",
            "VlocityDataPackType": "VlocityLookupMatchingKeyObject",
            "VlocityLookupRecordSourceKey": "%vlocity_namespace%__ObjectClass__c/63ba6ae5f8c257f7cdccc385d2a85dca",
            "VlocityRecordSObjectType": "%vlocity_namespace%__ObjectClass__c"
        },
        "%vlocity_namespace%__ObjectType__c": "Product2",
        "%vlocity_namespace%__SubClassId__c": {
            "%vlocity_namespace%__GlobalKey__c": "bab96efe-ff90-b539-47bf-3141df9d9290",
            "VlocityDataPackType": "VlocityMatchingKeyObject",
            "VlocityMatchingRecordSourceKey": "Product2/bab96efe-ff90-b539-47bf-3141df9d9290",
            "VlocityRecordSObjectType": "Product2"
        },
        "CurrencyIsoCode": "INR",
        "Name": "731b706c-3846-31ef-6a5c-cc2570ff52a2",
        "VlocityDataPackType": "SObject",
        "VlocityRecordSObjectType": "%vlocity_namespace%__ObjectFieldAttribute__c"
    },
    {
        "%vlocity_namespace%__FieldApiName__c": "%vlocity_namespace%__EndOfLifeDate__c",
        "%vlocity_namespace%__GlobalKey__c": "490bf876-a323-9aab-136b-297756dceb61",
        "%vlocity_namespace%__IsActive__c": true,
        "%vlocity_namespace%__ObjectClassId__c": {
            "%vlocity_namespace%__GlobalKey__c": "63ba6ae5f8c257f7cdccc385d2a85dca",
            "VlocityDataPackType": "VlocityLookupMatchingKeyObject",
            "VlocityLookupRecordSourceKey": "%vlocity_namespace%__ObjectClass__c/63ba6ae5f8c257f7cdccc385d2a85dca",
            "VlocityRecordSObjectType": "%vlocity_namespace%__ObjectClass__c"
        },
        "%vlocity_namespace%__ObjectType__c": "Product2",
        "%vlocity_namespace%__SubClassId__c": {
            "%vlocity_namespace%__GlobalKey__c": "bab96efe-ff90-b539-47bf-3141df9d9290",
            "VlocityDataPackType": "VlocityMatchingKeyObject",
            "VlocityMatchingRecordSourceKey": "Product2/bab96efe-ff90-b539-47bf-3141df9d9290",
            "VlocityRecordSObjectType": "Product2"
        },
        "CurrencyIsoCode": "INR",
        "Name": "490bf876-a323-9aab-136b-297756dceb61",
        "VlocityDataPackType": "SObject",
        "VlocityRecordSObjectType": "%vlocity_namespace%__ObjectFieldAttribute__c"
    },
    {
        "%vlocity_namespace%__FieldApiName__c": "%vlocity_namespace%__FulfilmentStartDate__c",
        "%vlocity_namespace%__GlobalKey__c": "c29d3cc6-2491-0a90-942c-c753b5783fb0",
        "%vlocity_namespace%__IsActive__c": true,
        "%vlocity_namespace%__ObjectClassId__c": {
            "%vlocity_namespace%__GlobalKey__c": "63ba6ae5f8c257f7cdccc385d2a85dca",
            "VlocityDataPackType": "VlocityLookupMatchingKeyObject",
            "VlocityLookupRecordSourceKey": "%vlocity_namespace%__ObjectClass__c/63ba6ae5f8c257f7cdccc385d2a85dca",
            "VlocityRecordSObjectType": "%vlocity_namespace%__ObjectClass__c"
        },
        "%vlocity_namespace%__ObjectType__c": "Product2",
        "%vlocity_namespace%__SubClassId__c": {
            "%vlocity_namespace%__GlobalKey__c": "bab96efe-ff90-b539-47bf-3141df9d9290",
            "VlocityDataPackType": "VlocityMatchingKeyObject",
            "VlocityMatchingRecordSourceKey": "Product2/bab96efe-ff90-b539-47bf-3141df9d9290",
            "VlocityRecordSObjectType": "Product2"
        },
        "CurrencyIsoCode": "INR",
        "Name": "c29d3cc6-2491-0a90-942c-c753b5783fb0",
        "VlocityDataPackType": "SObject",
        "VlocityRecordSObjectType": "%vlocity_namespace%__ObjectFieldAttribute__c"
    },
    {
        "%vlocity_namespace%__FieldApiName__c": "%vlocity_namespace%__ImageId__c",
        "%vlocity_namespace%__GlobalKey__c": "fd3202d2-46e5-b15f-4864-0211016f509b",
        "%vlocity_namespace%__IsActive__c": true,
        "%vlocity_namespace%__ObjectClassId__c": {
            "%vlocity_namespace%__GlobalKey__c": "63ba6ae5f8c257f7cdccc385d2a85dca",
            "VlocityDataPackType": "VlocityLookupMatchingKeyObject",
            "VlocityLookupRecordSourceKey": "%vlocity_namespace%__ObjectClass__c/63ba6ae5f8c257f7cdccc385d2a85dca",
            "VlocityRecordSObjectType": "%vlocity_namespace%__ObjectClass__c"
        },
        "%vlocity_namespace%__ObjectType__c": "Product2",
        "%vlocity_namespace%__SubClassId__c": {
            "%vlocity_namespace%__GlobalKey__c": "bab96efe-ff90-b539-47bf-3141df9d9290",
            "VlocityDataPackType": "VlocityMatchingKeyObject",
            "VlocityMatchingRecordSourceKey": "Product2/bab96efe-ff90-b539-47bf-3141df9d9290",
            "VlocityRecordSObjectType": "Product2"
        },
        "CurrencyIsoCode": "INR",
        "Name": "fd3202d2-46e5-b15f-4864-0211016f509b",
        "VlocityDataPackType": "SObject",
        "VlocityRecordSObjectType": "%vlocity_namespace%__ObjectFieldAttribute__c"
    },
    {
        "%vlocity_namespace%__FieldApiName__c": "%vlocity_namespace%__IsOrderable__c",
        "%vlocity_namespace%__GlobalKey__c": "5df6b4c9-0ed9-13e6-22f8-e1db6beb7658",
        "%vlocity_namespace%__IsActive__c": true,
        "%vlocity_namespace%__ObjectClassId__c": {
            "%vlocity_namespace%__GlobalKey__c": "63ba6ae5f8c257f7cdccc385d2a85dca",
            "VlocityDataPackType": "VlocityLookupMatchingKeyObject",
            "VlocityLookupRecordSourceKey": "%vlocity_namespace%__ObjectClass__c/63ba6ae5f8c257f7cdccc385d2a85dca",
            "VlocityRecordSObjectType": "%vlocity_namespace%__ObjectClass__c"
        },
        "%vlocity_namespace%__ObjectType__c": "Product2",
        "%vlocity_namespace%__SubClassId__c": {
            "%vlocity_namespace%__GlobalKey__c": "bab96efe-ff90-b539-47bf-3141df9d9290",
            "VlocityDataPackType": "VlocityMatchingKeyObject",
            "VlocityMatchingRecordSourceKey": "Product2/bab96efe-ff90-b539-47bf-3141df9d9290",
            "VlocityRecordSObjectType": "Product2"
        },
        "CurrencyIsoCode": "INR",
        "Name": "5df6b4c9-0ed9-13e6-22f8-e1db6beb7658",
        "VlocityDataPackType": "SObject",
        "VlocityRecordSObjectType": "%vlocity_namespace%__ObjectFieldAttribute__c"
    },
    {
        "%vlocity_namespace%__FieldApiName__c": "%vlocity_namespace%__Scope__c",
        "%vlocity_namespace%__GlobalKey__c": "e8898e35-d64c-b538-3830-22658f7f2661",
        "%vlocity_namespace%__IsActive__c": true,
        "%vlocity_namespace%__ObjectClassId__c": {
            "%vlocity_namespace%__GlobalKey__c": "63ba6ae5f8c257f7cdccc385d2a85dca",
            "VlocityDataPackType": "VlocityLookupMatchingKeyObject",
            "VlocityLookupRecordSourceKey": "%vlocity_namespace%__ObjectClass__c/63ba6ae5f8c257f7cdccc385d2a85dca",
            "VlocityRecordSObjectType": "%vlocity_namespace%__ObjectClass__c"
        },
        "%vlocity_namespace%__ObjectType__c": "Product2",
        "%vlocity_namespace%__SubClassId__c": {
            "%vlocity_namespace%__GlobalKey__c": "bab96efe-ff90-b539-47bf-3141df9d9290",
            "VlocityDataPackType": "VlocityMatchingKeyObject",
            "VlocityMatchingRecordSourceKey": "Product2/bab96efe-ff90-b539-47bf-3141df9d9290",
            "VlocityRecordSObjectType": "Product2"
        },
        "CurrencyIsoCode": "INR",
        "Name": "e8898e35-d64c-b538-3830-22658f7f2661",
        "VlocityDataPackType": "SObject",
        "VlocityRecordSObjectType": "%vlocity_namespace%__ObjectFieldAttribute__c"
    },
    {
        "%vlocity_namespace%__FieldApiName__c": "%vlocity_namespace%__SellingEndDate__c",
        "%vlocity_namespace%__GlobalKey__c": "dea36d33-1b41-6b0b-7d91-3bfab1c705e0",
        "%vlocity_namespace%__IsActive__c": true,
        "%vlocity_namespace%__ObjectClassId__c": {
            "%vlocity_namespace%__GlobalKey__c": "63ba6ae5f8c257f7cdccc385d2a85dca",
            "VlocityDataPackType": "VlocityLookupMatchingKeyObject",
            "VlocityLookupRecordSourceKey": "%vlocity_namespace%__ObjectClass__c/63ba6ae5f8c257f7cdccc385d2a85dca",
            "VlocityRecordSObjectType": "%vlocity_namespace%__ObjectClass__c"
        },
        "%vlocity_namespace%__ObjectType__c": "Product2",
        "%vlocity_namespace%__SubClassId__c": {
            "%vlocity_namespace%__GlobalKey__c": "bab96efe-ff90-b539-47bf-3141df9d9290",
            "VlocityDataPackType": "VlocityMatchingKeyObject",
            "VlocityMatchingRecordSourceKey": "Product2/bab96efe-ff90-b539-47bf-3141df9d9290",
            "VlocityRecordSObjectType": "Product2"
        },
        "CurrencyIsoCode": "INR",
        "Name": "dea36d33-1b41-6b0b-7d91-3bfab1c705e0",
        "VlocityDataPackType": "SObject",
        "VlocityRecordSObjectType": "%vlocity_namespace%__ObjectFieldAttribute__c"
    },
    {
        "%vlocity_namespace%__FieldApiName__c": "%vlocity_namespace%__SellingStartDate__c",
        "%vlocity_namespace%__GlobalKey__c": "a54ee6db-78e1-406c-b893-57b04c2246a3",
        "%vlocity_namespace%__IsActive__c": true,
        "%vlocity_namespace%__ObjectClassId__c": {
            "%vlocity_namespace%__GlobalKey__c": "63ba6ae5f8c257f7cdccc385d2a85dca",
            "VlocityDataPackType": "VlocityLookupMatchingKeyObject",
            "VlocityLookupRecordSourceKey": "%vlocity_namespace%__ObjectClass__c/63ba6ae5f8c257f7cdccc385d2a85dca",
            "VlocityRecordSObjectType": "%vlocity_namespace%__ObjectClass__c"
        },
        "%vlocity_namespace%__ObjectType__c": "Product2",
        "%vlocity_namespace%__SubClassId__c": {
            "%vlocity_namespace%__GlobalKey__c": "bab96efe-ff90-b539-47bf-3141df9d9290",
            "VlocityDataPackType": "VlocityMatchingKeyObject",
            "VlocityMatchingRecordSourceKey": "Product2/bab96efe-ff90-b539-47bf-3141df9d9290",
            "VlocityRecordSObjectType": "Product2"
        },
        "CurrencyIsoCode": "INR",
        "Name": "a54ee6db-78e1-406c-b893-57b04c2246a3",
        "VlocityDataPackType": "SObject",
        "VlocityRecordSObjectType": "%vlocity_namespace%__ObjectFieldAttribute__c"
    },
    {
        "%vlocity_namespace%__FieldApiName__c": "%vlocity_namespace%__Status__c",
        "%vlocity_namespace%__GlobalKey__c": "635e63c1-c0ee-fc2b-3c37-9814f044c072",
        "%vlocity_namespace%__IsActive__c": true,
        "%vlocity_namespace%__ObjectClassId__c": {
            "%vlocity_namespace%__GlobalKey__c": "63ba6ae5f8c257f7cdccc385d2a85dca",
            "VlocityDataPackType": "VlocityLookupMatchingKeyObject",
            "VlocityLookupRecordSourceKey": "%vlocity_namespace%__ObjectClass__c/63ba6ae5f8c257f7cdccc385d2a85dca",
            "VlocityRecordSObjectType": "%vlocity_namespace%__ObjectClass__c"
        },
        "%vlocity_namespace%__ObjectType__c": "Product2",
        "%vlocity_namespace%__SubClassId__c": {
            "%vlocity_namespace%__GlobalKey__c": "bab96efe-ff90-b539-47bf-3141df9d9290",
            "VlocityDataPackType": "VlocityMatchingKeyObject",
            "VlocityMatchingRecordSourceKey": "Product2/bab96efe-ff90-b539-47bf-3141df9d9290",
            "VlocityRecordSObjectType": "Product2"
        },
        "CurrencyIsoCode": "INR",
        "Name": "635e63c1-c0ee-fc2b-3c37-9814f044c072",
        "VlocityDataPackType": "SObject",
        "VlocityRecordSObjectType": "%vlocity_namespace%__ObjectFieldAttribute__c"
    },
    {
        "%vlocity_namespace%__FieldApiName__c": "Description",
        "%vlocity_namespace%__GlobalKey__c": "5f56f0f6-9aa6-8ea3-1a4d-d7bf71d4a8cc",
        "%vlocity_namespace%__IsActive__c": true,
        "%vlocity_namespace%__ObjectClassId__c": {
            "%vlocity_namespace%__GlobalKey__c": "63ba6ae5f8c257f7cdccc385d2a85dca",
            "VlocityDataPackType": "VlocityLookupMatchingKeyObject",
            "VlocityLookupRecordSourceKey": "%vlocity_namespace%__ObjectClass__c/63ba6ae5f8c257f7cdccc385d2a85dca",
            "VlocityRecordSObjectType": "%vlocity_namespace%__ObjectClass__c"
        },
        "%vlocity_namespace%__ObjectType__c": "Product2",
        "%vlocity_namespace%__SubClassId__c": {
            "%vlocity_namespace%__GlobalKey__c": "bab96efe-ff90-b539-47bf-3141df9d9290",
            "VlocityDataPackType": "VlocityMatchingKeyObject",
            "VlocityMatchingRecordSourceKey": "Product2/bab96efe-ff90-b539-47bf-3141df9d9290",
            "VlocityRecordSObjectType": "Product2"
        },
        "CurrencyIsoCode": "INR",
        "Name": "5f56f0f6-9aa6-8ea3-1a4d-d7bf71d4a8cc",
        "VlocityDataPackType": "SObject",
        "VlocityRecordSObjectType": "%vlocity_namespace%__ObjectFieldAttribute__c"
    },
    {
        "%vlocity_namespace%__FieldApiName__c": "Family",
        "%vlocity_namespace%__GlobalKey__c": "58ed8fca-4fa7-1f9a-f8f4-6504579a22d1",
        "%vlocity_namespace%__IsActive__c": true,
        "%vlocity_namespace%__ObjectClassId__c": {
            "%vlocity_namespace%__GlobalKey__c": "63ba6ae5f8c257f7cdccc385d2a85dca",
            "VlocityDataPackType": "VlocityLookupMatchingKeyObject",
            "VlocityLookupRecordSourceKey": "%vlocity_namespace%__ObjectClass__c/63ba6ae5f8c257f7cdccc385d2a85dca",
            "VlocityRecordSObjectType": "%vlocity_namespace%__ObjectClass__c"
        },
        "%vlocity_namespace%__ObjectType__c": "Product2",
        "%vlocity_namespace%__SubClassId__c": {
            "%vlocity_namespace%__GlobalKey__c": "bab96efe-ff90-b539-47bf-3141df9d9290",
            "VlocityDataPackType": "VlocityMatchingKeyObject",
            "VlocityMatchingRecordSourceKey": "Product2/bab96efe-ff90-b539-47bf-3141df9d9290",
            "VlocityRecordSObjectType": "Product2"
        },
        "CurrencyIsoCode": "INR",
        "Name": "58ed8fca-4fa7-1f9a-f8f4-6504579a22d1",
        "VlocityDataPackType": "SObject",
        "VlocityRecordSObjectType": "%vlocity_namespace%__ObjectFieldAttribute__c"
    },
    {
        "%vlocity_namespace%__FieldApiName__c": "IsActive",
        "%vlocity_namespace%__GlobalKey__c": "510e5507-778a-9b44-9f89-4094aadf198a",
        "%vlocity_namespace%__IsActive__c": true,
        "%vlocity_namespace%__ObjectClassId__c": {
            "%vlocity_namespace%__GlobalKey__c": "63ba6ae5f8c257f7cdccc385d2a85dca",
            "VlocityDataPackType": "VlocityLookupMatchingKeyObject",
            "VlocityLookupRecordSourceKey": "%vlocity_namespace%__ObjectClass__c/63ba6ae5f8c257f7cdccc385d2a85dca",
            "VlocityRecordSObjectType": "%vlocity_namespace%__ObjectClass__c"
        },
        "%vlocity_namespace%__ObjectType__c": "Product2",
        "%vlocity_namespace%__SubClassId__c": {
            "%vlocity_namespace%__GlobalKey__c": "bab96efe-ff90-b539-47bf-3141df9d9290",
            "VlocityDataPackType": "VlocityMatchingKeyObject",
            "VlocityMatchingRecordSourceKey": "Product2/bab96efe-ff90-b539-47bf-3141df9d9290",
            "VlocityRecordSObjectType": "Product2"
        },
        "CurrencyIsoCode": "INR",
        "Name": "510e5507-778a-9b44-9f89-4094aadf198a",
        "VlocityDataPackType": "SObject",
        "VlocityRecordSObjectType": "%vlocity_namespace%__ObjectFieldAttribute__c"
    },
    {
        "%vlocity_namespace%__FieldApiName__c": "Name",
        "%vlocity_namespace%__GlobalKey__c": "4bf60ce3-d3ac-70f2-6e0f-d434021015f2",
        "%vlocity_namespace%__IsActive__c": true,
        "%vlocity_namespace%__ObjectClassId__c": {
            "%vlocity_namespace%__GlobalKey__c": "63ba6ae5f8c257f7cdccc385d2a85dca",
            "VlocityDataPackType": "VlocityLookupMatchingKeyObject",
            "VlocityLookupRecordSourceKey": "%vlocity_namespace%__ObjectClass__c/63ba6ae5f8c257f7cdccc385d2a85dca",
            "VlocityRecordSObjectType": "%vlocity_namespace%__ObjectClass__c"
        },
        "%vlocity_namespace%__ObjectType__c": "Product2",
        "%vlocity_namespace%__SubClassId__c": {
            "%vlocity_namespace%__GlobalKey__c": "bab96efe-ff90-b539-47bf-3141df9d9290",
            "VlocityDataPackType": "VlocityMatchingKeyObject",
            "VlocityMatchingRecordSourceKey": "Product2/bab96efe-ff90-b539-47bf-3141df9d9290",
            "VlocityRecordSObjectType": "Product2"
        },
        "CurrencyIsoCode": "INR",
        "Name": "4bf60ce3-d3ac-70f2-6e0f-d434021015f2",
        "VlocityDataPackType": "SObject",
        "VlocityRecordSObjectType": "%vlocity_namespace%__ObjectFieldAttribute__c"
    },
    {
        "%vlocity_namespace%__FieldApiName__c": "ProductCode",
        "%vlocity_namespace%__GlobalKey__c": "74c512c5-16db-b4f8-432d-7eddc80fe8b3",
        "%vlocity_namespace%__IsActive__c": true,
        "%vlocity_namespace%__ObjectClassId__c": {
            "%vlocity_namespace%__GlobalKey__c": "63ba6ae5f8c257f7cdccc385d2a85dca",
            "VlocityDataPackType": "VlocityLookupMatchingKeyObject",
            "VlocityLookupRecordSourceKey": "%vlocity_namespace%__ObjectClass__c/63ba6ae5f8c257f7cdccc385d2a85dca",
            "VlocityRecordSObjectType": "%vlocity_namespace%__ObjectClass__c"
        },
        "%vlocity_namespace%__ObjectType__c": "Product2",
        "%vlocity_namespace%__SubClassId__c": {
            "%vlocity_namespace%__GlobalKey__c": "bab96efe-ff90-b539-47bf-3141df9d9290",
            "VlocityDataPackType": "VlocityMatchingKeyObject",
            "VlocityMatchingRecordSourceKey": "Product2/bab96efe-ff90-b539-47bf-3141df9d9290",
            "VlocityRecordSObjectType": "Product2"
        },
        "CurrencyIsoCode": "INR",
        "Name": "74c512c5-16db-b4f8-432d-7eddc80fe8b3",
        "VlocityDataPackType": "SObject",
        "VlocityRecordSObjectType": "%vlocity_namespace%__ObjectFieldAttribute__c"
    }
]