{
    "%vlocity_namespace%__EffectiveFromDate__c": "2020-10-22",
    "%vlocity_namespace%__EffectiveUntilDate__c": "",
    "%vlocity_namespace%__GlobalGroupKey__c": "a06fb0e4-ff0e-f081-317d-eb190a0406a3",
    "%vlocity_namespace%__GlobalKey__c": "",
    "%vlocity_namespace%__IsActive__c": true,
    "%vlocity_namespace%__IsVirtual__c": false,
    "%vlocity_namespace%__LifecycleStatus__c": "",
    "%vlocity_namespace%__Mode__c": "",
    "%vlocity_namespace%__ObjectApiName__c": "Product2",
    "%vlocity_namespace%__ObjectFieldAttribute__c": "CRMA-Base-Product-Spec_ObjectFieldAttributes.json",
    "%vlocity_namespace%__ParentObjectClassId__c": "",
    "%vlocity_namespace%__RecordTypeName__c": "",
    "%vlocity_namespace%__RootObjectClassId__c": {
        "%vlocity_namespace%__GlobalKey__c": "63ba6ae5f8c257f7cdccc385d2a85dca",
        "VlocityDataPackType": "VlocityLookupMatchingKeyObject",
        "VlocityLookupRecordSourceKey": "%vlocity_namespace%__ObjectClass__c/63ba6ae5f8c257f7cdccc385d2a85dca",
        "VlocityRecordSObjectType": "%vlocity_namespace%__ObjectClass__c"
    },
    "%vlocity_namespace%__VersionLabel__c": "",
    "Name": "CRMA Base Product Spec",
    "RecordTypeId": {
        "DeveloperName": "ObjectType",
        "SobjectType": "%vlocity_namespace%__ObjectClass__c",
        "VlocityDataPackType": "VlocityLookupMatchingKeyObject",
        "VlocityLookupRecordSourceKey": "RecordType/%vlocity_namespace%__ObjectClass__c/ObjectType",
        "VlocityRecordSObjectType": "RecordType"
    },
    "VlocityDataPackType": "SObject",
    "VlocityRecordSObjectType": "%vlocity_namespace%__ObjectClass__c",
    "VlocityRecordSourceKey": "%vlocity_namespace%__ObjectClass__c/Generated1046306651"
}