[
    "ObjectClass/63ba6ae5f8c257f7cdccc385d2a85dca",
    "ObjectClass/CRMA Base Product Spec",
    "UIFacet/5ceff4783b0f59f31b27417a7064a12c",
    "UIFacet/7e2708aeb65763c54052f57ed1a1ec1d",
    "UIFacet/88133f31931c2d3463baa8f14230978f",
    "UIFacet/885e10262c2299afdcd1aa6e95138717",
    "UIFacet/dfe7bc9608d6f84ba04f9010be4bb8d1",
    "UIFacet/e22ac25b066b201473de7aa700ef5d92",
    "UIFacet/f3ace7a9322ba258081738b2a79fb02a",
    "UISection/07fb6c10c8822dcf5708e0b13836de9d",
    "UISection/5ceff4783b0f59f31b27417a7064a12c",
    "UISection/7e2708aeb65763c54052f57ed1a1ec1d",
    "UISection/88133f31931c2d3463baa8f14230978f",
    "UISection/885e10262c2299afdcd1aa6e95138717",
    "UISection/dfe7bc9608d6f84ba04f9010be4bb8d1",
    "UISection/e22ac25b066b201473de7aa700ef5d92",
    "UISection/f3ace7a9322ba258081738b2a79fb02a"
]